…
### What the Police Data was Missing

These 289 stops do not tell the full story of the interactions between
police and students in Antelope Valley. By performing geospatial
analysis and running a clustering algorithm in python, Irena was able to
assign interactions to schools rather than taking the data at face
value. Large numbers of arrests in close physical proximity (as was
often the case at schools) were grouped into numbered clusters. Stops
taking place at or adjacent to schools were assigned a cluster code.

``` r
school_codes
```

    ## # A tibble: 29 × 2
    ##    School                            Code
    ##    <chr>                            <dbl>
    ##  1 Amargosa Creek Middle              816
    ##  2 Antelope Valley Adventist School   817
    ##  3 Antelope Valley High               818
    ##  4 Bethel Christian Academy           819
    ##  5 Desert Christian High School       820
    ##  6 Discovery Elementary               821
    ##  7 Eastside High                      822
    ##  8 Eastside Union School District     823
    ##  9 El Dorado Elementary School        824
    ## 10 Gifford C. Cole Middle             825
    ## # … with 19 more rows
This method allowed us not only to discern which stops were happening at
which schools and which schools had the most encounters between students
and police, but also to verify our findings against what the LA County
Sheriff’s Department reported in its official documentation. Since each
interaction included geospatial info (latitude and longitude), we were
able to take great care in verifying that each of the interactions
identified by the algorithm indeed took place at or adjacent to a K-12
school in Antelope Valley.

``` r
AntValleyClean %>%
  filter(Cluster %in% school_codes$Code)
```

    ## # A tibble: 406 × 141
    ##    CONTACT_ID PATROL_STATION DATE_TIME           NUMBER_OF_MINUTES STREET_NUMBER
    ##         <dbl> <chr>          <dttm>                          <dbl>         <dbl>
    ##  1     137375 LAN            2019-01-01 03:04:00                60            NA
    ##  2     141217 LAN            2019-01-08 12:40:00                10           100
    ##  3     145277 LAN            2019-01-15 08:00:00                10         45700
    ##  4     145314 LAN            2019-01-15 11:30:00                60         44300
    ##  5     145706 LAN            2019-01-16 10:20:00                10          6000
    ##  6     145781 LAN            2019-01-16 11:00:00                60         44300
    ##  7     146743 LAN            2019-01-18 10:30:00                10          4400
    ##  8     146743 LAN            2019-01-18 10:30:00                10          4400
    ##  9     146846 LAN            2019-01-18 18:04:00                20          3200
    ## 10     148457 LAN            2019-01-22 12:00:00                10         44900
    ## # … with 396 more rows, and 136 more variables: DIRECTION <chr>, STREET <chr>,
    ## #   TYPE <chr>, SUITE <chr>, CROSS_STREET <chr>, LANDMARK <chr>,
    ## #   FULL_STREET <chr>, CITY <chr>, STATE <chr>, ZIP_CODE <dbl>,
    ## #   K_12_SCHOOL <lgl>, SCHOOL_NAME <chr>, CALL_FOR_SERVICE <lgl>,
    ## #   CIVILIANS_CONTACTED <dbl>, Person ID <dbl>, Street # <dbl>,
    ## #   Street Direction <chr>, Street Name <chr>, Street Type <chr>, Suite <chr>,
    ## #   Cross Street <chr>, Landmark <chr>, Full Address <chr>, City <chr>, …
…
The next part of the bulletproofing process individual facts from the
story. In this section, I will examine claims made in the story and go
in depth on how I verified
them.

#### “More than 80% of those contacts with LASD deputies involved youths between the ages of five and 19.”

``` r
AntValleyClean %>%
  filter(Cluster %in% school_codes$Code) %>%
  filter(`Age?` >= 5 & `Age?`<= 19)
```

    ## # A tibble: 343 × 141
    ##    CONTACT_ID PATROL_STATION DATE_TIME           NUMBER_OF_MINUTES STREET_NUMBER
    ##         <dbl> <chr>          <dttm>                          <dbl>         <dbl>
    ##  1     141217 LAN            2019-01-08 12:40:00                10           100
    ##  2     145314 LAN            2019-01-15 11:30:00                60         44300
    ##  3     145706 LAN            2019-01-16 10:20:00                10          6000
    ##  4     146743 LAN            2019-01-18 10:30:00                10          4400
    ##  5     146743 LAN            2019-01-18 10:30:00                10          4400
    ##  6     146846 LAN            2019-01-18 18:04:00                20          3200
    ##  7     150478 LAN            2019-01-24 15:00:00                60         44300
    ##  8     150897 LAN            2019-01-25 09:45:00                 5          6000
    ##  9     152973 LAN            2019-01-29 12:00:00                15         43800
    ## 10     153123 LAN            2019-01-29 11:40:00                 1          6000
    ## # … with 333 more rows, and 136 more variables: DIRECTION <chr>, STREET <chr>,
    ## #   TYPE <chr>, SUITE <chr>, CROSS_STREET <chr>, LANDMARK <chr>,
    ## #   FULL_STREET <chr>, CITY <chr>, STATE <chr>, ZIP_CODE <dbl>,
    ## #   K_12_SCHOOL <lgl>, SCHOOL_NAME <chr>, CALL_FOR_SERVICE <lgl>,
    ## #   CIVILIANS_CONTACTED <dbl>, Person ID <dbl>, Street # <dbl>,
    ## #   Street Direction <chr>, Street Name <chr>, Street Type <chr>, Suite <chr>,
    ## #   Cross Street <chr>, Landmark <chr>, Full Address <chr>, City <chr>, …
…
As simple as adding an additional filter and counting
again.

### They were cited for fighting, for marijana possession and for battery against a school employee, among other violations.

``` r
AntValleyClean %>%
  filter(str_detect(toupper(`Reason for Contact`), "REASONABLE SUSPICION THAT THE PERSON WAS ENGAGED IN CRIMINAL ACTIVITY")) %>%
  filter(`Age?` >= 5 & `Age?`<= 19) %>%
  filter(Race == "Black/African American") %>%
  filter(`Result of Contact:  In-field Cite and Release?` ==T) %>%
  count(`Result of Contact:  In-field Cite and Release Offense Codes?`, sort=T)
```

    ## # A tibble: 33 × 2
    ##    `Result of Contact:  In-field Cite and Release Offense Codes?`     n
    ##    <chr>                                                          <int>
    ##  1 415(1)                                                            75
    ##  2 11357(D)                                                          18
    ##  3 243.6                                                             15
    ##  4 243.2(A)(1)                                                       11
    ##  5 243.2(A)                                                          10
    ##  6 242                                                                8
    ##  7 32210                                                              3
    ##  8 330                                                                3
    ##  9 484(A)                                                             3
    ## 10 626.10(A)(1)                                                       3
    ## # … with 23 more rows
…
